^C:\USERS\VINCENT\SOURCE\REPOS\FVTC\C++\ASSIGNMENTS\MADLIB\VLZ.MADLIB\VLZ.MADLIB\MAIN.CPP
/c /ZI /JMC /nologo /W3 /WX- /diagnostics:classic /sdl /Od /D _MBCS /Gm- /EHsc /RTC1 /MDd /GS /fp:precise /permissive- /Zc:wchar_t /Zc:forScope /Zc:inline /Fo"X64\DEBUG\\" /Fd"X64\DEBUG\VC141.PDB" /Gd /TP /FC C:\USERS\VINCENT\SOURCE\REPOS\FVTC\C++\ASSIGNMENTS\MADLIB\VLZ.MADLIB\VLZ.MADLIB\MAIN.CPP
^C:\USERS\500160437\SOURCE\REPOS\MADLIB\VLZ.MADLIB\VLZ.MADLIB\MAIN.CPP
/c /ZI /JMC /nologo /W3 /WX- /diagnostics:classic /sdl /Od /D _MBCS /Gm- /EHsc /RTC1 /MDd /GS /fp:precise /permissive- /Zc:wchar_t /Zc:forScope /Zc:inline /Fo"X64\DEBUG\\" /Fd"X64\DEBUG\VC141.PDB" /Gd /TP /FC C:\USERS\500160437\SOURCE\REPOS\MADLIB\VLZ.MADLIB\VLZ.MADLIB\MAIN.CPP
